{
 "absolute_value": 0,
 "align_labels_right": 0,
 "creation": "2021-01-28 12:06:06.045417",
 "custom_format": 1,
 "default_print_language": "en",
 "disabled": 0,
 "doc_type": "Sales Invoice",
 "docstatus": 0,
 "doctype": "Print Format",
 "font": "Default",
 "html": "<div id=\"header-html\" class=\"hidden-pdf row section-break\">\r\n\t\t\r\n\t<div class=\"letter-head\"><div><img src=\"https://www.excelbd.com/wp-content/uploads/2020/07/ETL-header.jpg\" style=\"width: 861px;\"><br></div></div>\t\t    \r\n\t\t<div class=\"print-heading\" style=\"padding-bottom: 6px !important; margin-bottom: 3px;\">\r\n\t\t\t\r\n\t\t\t<div class=\"2nd-head\" style=\"padding-top: 6px !important;\">\r\n\t\t\t\t<p style=\"display: inline-block; text-align: left; width: 33%; \">{{ doc.name }}</p>\r\n\t\t\t\t<p style=\"display: inline-block; text-align: center; width: 32%; \"><b>INVOICE</b></p>\r\n\t\t\t\t<p style=\"display: inline-block; text-align: right; width: 33%;\">{{ doc.get_formatted(\"territory\") }}</p>\r\n\t\t\t</div> \r\n\t\t\t\r\n\t\t\t\t\t\r\n\t<div>\r\n\t\t{%- if doc.status == 'Draft' -%}\r\n\t\t\t<p class=\"text-center\"><b>{{ doc.status }}</b></p>\r\n\t\t{% else %}\r\n\t\t{%- endif %}\r\n\t</div>\r\n\r\n\t\t</div>\r\n\t\r\n\t</div>\r\n\r\n\r\n\t\t<div class=\"row section-break\" style=\"margin: 0px !important\">\r\n\t\t\t<table class=\"col-xs-6\">\r\n\t\t\t\t<tr>\r\n\t\t\t\t\t<td style=\"padding: 0px !important;\">Customer</td>\r\n\t\t\t\t\t<td class=\"text-center\" style=\"padding: 0px 16px !important;\">:</td>\r\n\t\t\t\t\t<td style=\"padding: 0px !important;\">{{ doc.get_formatted(\"customer_name\") }}</td>\r\n\t\t\t\t</tr>\r\n\t\t\t\t{%- if doc.address_display -%}\r\n\t\t\t\t<tr>\r\n\t\t\t\t\t<td style=\"padding: 0px !important;\">Address</td>\r\n\t\t\t\t\t<td style=\"padding: 0px 16px !important;\" class=\"text-center\">:</td>\r\n\t\t\t\t\t<td style=\"padding: 0px !important;\">{{ doc.get_formatted(\"address_display\") }}</td>\r\n\t\t\t\t</tr>\r\n\t\t\t\t{% else %}\r\n\t\t\t\t   {%- endif %}\r\n\t\t\t\t{%- if doc.contact_display -%}\r\n\t\t\t\t<tr>\r\n\t\t\t\t\t<td style=\"padding: 0px !important;\">Contact</td>\r\n\t\t\t\t\t<td style=\"padding: 0px 16px !important;\" class=\"text-center\">:</td>\r\n\t\t\t\t\t<td style=\"padding: 0px !important;\">{{ doc.get_formatted(\"contact_display\") }}</td>\r\n\t\t\t\t</tr>\r\n\t\t\t\t{% else %}\r\n\t\t\t\t   {%- endif %}\r\n\t\t\t\t   {%- if doc.contact_mobile -%}\r\n\t\t\t\t<tr>\r\n\t\t\t\t\t<td style=\"padding: 0px !important;\">Mobile No</td>\r\n\t\t\t\t\t<td style=\"padding: 0px 16px !important;\" class=\"text-center\">:</td>  \r\n\t\t\t\t\t<td style=\"padding: 0px !important;\">{{ doc.get_formatted(\"contact_mobile\") }}</td>\r\n\t\t\t\t</tr>\r\n\t\t\t\t{% else %}\r\n\t\t\t\t   {%- endif %}\r\n\t\t\t\t\t\t\t\r\n\t\t\t</table>\r\n\r\n\t\t\t<table class=\"col-xs-1\">\r\n\t\t\t\t<tr><td></td></tr>\r\n\t\t\t</table>\r\n\r\n\t\t\t<table class=\"col-xs-5\">\r\n\t\t\t\t<tr>\r\n\t\t\t\t\t<td style=\"padding: 0px !important;\" >Posting Date</td>\r\n\t\t\t\t\t<td style=\"padding: 0px !important;\" class=\"text-center\">:</td>\r\n\t\t\t\t\t<td style=\"padding: 0px !important;\" class=\"text-right\">{{ doc.get_formatted(\"posting_date\") }}</td>\r\n\t\t\t\t</tr>\r\n\t\t\t\t<tr>\r\n\t\t\t\t\t<td style=\"padding: 0px !important;\">Due Date</td>\r\n\t\t\t\t\t<td style=\"padding: 0px !important;\" class=\"text-center\">:</td>\r\n\t\t\t\t\t<td style=\"padding: 0px !important;\" class=\"text-right\">{{ doc.get_formatted(\"due_date\") }}</td>\r\n\t\t\t\t</tr>\r\n\t\t\t\t{%- if doc.po_date -%}\r\n\t\t\t\t<tr>\r\n\t\t\t\t\t<td style=\"padding: 0px !important;\">PO Date</td>\r\n\t\t\t\t\t<td style=\"padding: 0px !important;\" class=\"text-center\">:</td>\r\n\t\t\t\t\t<td style=\"padding: 0px !important;\" class=\"text-right\">{{ doc.get_formatted(\"po_date\") }}</td>\r\n\t\t\t\t</tr>\r\n\t\t\t\t{% else %}\r\n\t\t\t\t   {%- endif %}\r\n\t\t\t\t   {%- if doc.po_no -%}\r\n\t\t\t\t<tr>\r\n\t\t\t\t\t<td style=\"padding: 0px !important;\">PO Details</td>\r\n\t\t\t\t\t<td style=\"padding: 0px !important;\" class=\"text-center\">:</td>\r\n\t\t\t\t\t<td style=\"padding: 0px !important;\" class=\"text-right\">{{ doc.get_formatted(\"po_no\") }}</td>\r\n\t\t\t\t</tr>\r\n\t\t\t\t{% else %}\r\n\t\t\t\t{%- endif -%}\r\n\t\t\t\t{%- for row in doc.sales_team -%}\r\n\t\t\t\t<tr>\r\n\t\t\t\t\t<td style=\"padding: 0px !important;\">Sold By</td>\r\n\t\t\t\t\t<td style=\"padding: 0px !important;\" class=\"text-center\">:</td>\r\n\t\t\t\t\t<td style=\"padding: 0px !important;\" class=\"text-right\">{{ row.sales_person }}</td>\r\n\t\t\t\t</tr>\r\n\t\t\t\t{%- endfor -%}\r\n\t\t\t\t<tr>\r\n\t\t\t\t\t<td style=\"padding: 0px !important;\">Created By</td>\r\n\t\t\t\t\t<td style=\"padding: 0px !important;\" class=\"text-center\">:</td>\r\n\t\t\t\t\t<td style=\"padding: 0px !important;\" class=\"text-right\">{{ frappe.get_fullname(doc.owner) }}</td>\r\n\t\t\t\t</tr>\r\n\t\t\t\t<tr>\r\n\t\t\t\t\t<td style=\"padding: 0px !important; padding-right: 0px !important;\">Approved By</td>\r\n\t\t\t\t\t<td style=\"padding: 0px !important;\" class=\"text-center\">:</td>\r\n\t\t\t\t\t<td style=\"padding: 0px !important;\" class=\"text-right\">{{ frappe.get_fullname(doc.modified_by) }}</td>\r\n\t\t\t\t</tr>\r\n\t\t\t\t\r\n\t\t\t</table>\r\n\r\n\t\t</div>\r\n\r\n\t<table class=\"table table-bordered\">\r\n\t\t<tr>\r\n\t\t\t<th class=\"text-left\">Sl.</th>\r\n\t\t\t<th class=\"text-left\">Item Name</th>\r\n\t\t\t<th class=\"text-right\">Qty</th>\r\n\t\t\t<th class=\"text-right\">Rate</th>\r\n\t\t\t<th class=\"text-right\">Amount</th>\r\n\t\t\r\n\t\t</tr>\r\n\r\n        {%- for row in doc.items -%}\r\n        <tr>\r\n            <td class=\"text-left\">{{ row.idx }}</td>\r\n            <td class=\"text-left\">{{ row.item_name }}</td>\r\n            <td class=\"text-right\">{{ row.qty }}</td>\r\n            <td class=\"text-right\">{{ row.get_formatted(\"rate\", doc) }}</td>\r\n            <td class=\"text-right\">{{ row.get_formatted(\"amount\", doc) }}</td>\r\n        </tr>\t\t\t\t\t\t   \r\n\r\n        {%- endfor -%}\r\n        \r\n        {%- if doc.total_qty -%}\r\n\t\t<tr>\r\n\t\t\t<td colspan=\"2\" class=\"text-right\" style=\"font-size: 12px; padding: 6px 8px 6px 30px !important;\">Total Qty</td>\r\n\t\t\t<td colspan=\"1\" class=\"text-right\" style=\"font-size: 12px; padding: 6px !important;\">{{ doc.get_formatted(\"total_qty\") }}</td>\r\n\t\t\t<td colspan=\"2\" class=\"text-right\" style=\"font-size: 12px; padding: 6px !important;\"></td>\r\n\t\t</tr>\r\n        {% else %}\r\n        {%- endif %}\r\n\r\n\t\t{%- if doc.discount_amount -%}\r\n\t\t<tr>\r\n\t\t\t<td colspan=\"4\" class=\"text-right\" style=\"font-size: 12px; padding: 6px 8px 6px 30px !important;\"><b>Discount</b></td>\r\n\t\t\t<td class=\"text-right\" style=\"font-size: 12px; padding: 6px !important;\"><b>{{ doc.get_formatted(\"discount_amount\") }}</b></td>\r\n\t\t</tr>\r\n\t\t{% else %}\r\n\t\t{%- endif %}\r\n\r\n        {%- if doc.total_taxes_and_charges -%}\r\n        <tr>\r\n            <td colspan=\"4\" class=\"text-right\" style=\"font-size: 12px; padding: 6px 8px 6px 30px !important;\">VAT</td>\r\n            <td class=\"text-right\" style=\"font-size: 12px; padding: 6px !important;\">{{ doc.get_formatted(\"total_taxes_and_charges\") }}</td>\r\n        </tr>\r\n        {% else %}\r\n        {%- endif %}\r\n        \t\t   \r\n\t\t<tr>\r\n\t\t\t<td colspan=\"4\" class=\"text-right\" style=\"font-size: 12px; padding: 6px 8px 6px 30px !important;\"><b>Grand Total</b></td>\r\n\t\t\t<td class=\"text-right\" style=\"font-size: 12px; padding: 6px !important;\"><b>{{ doc.get_formatted(\"grand_total\") }}</b></td>\r\n\t\t</tr>\r\n\t</table>\r\n\r\n\t<!-- Product Bundle Details Start -->\r\n\t{%- if doc.packed_items -%}\r\n\t<table class=\"table table-bordered\">\r\n\t\t<thead>\r\n\t\t\t<tr>\r\n\t\t\t\t<th>Bundle Item Name</th>\r\n\t\t\t\t<th class=\"text-right\">Qty</th>\r\n\t\t\t</tr>\r\n\t\t</thead>\r\n\t\t<tbody>\r\n\t\t{%- for i in doc.packed_items -%}\r\n\t\t<tr>\r\n\t\t\t<td>\r\n\t\t\t\t{{ i.item_name }}\r\n\t\t\t</td>\r\n\t\t\t<td class=\"text-right\"> \r\n\t\t\t\t{{ i.qty }}\r\n\t\t\t</td>\t\t\t\t\r\n\t\t</tr>\r\n\t\t{% if i.serial_no  %}\r\n\t\t<tr>\r\n\t\t\t<td colspan=\"2\" class=\"text-left\">\r\n\t\t\t\t<b>Serials: </b>{{ i.serial_no }}\r\n\t\t\t</td>\r\n\t\t</tr>\r\n\t\t{% else %}\r\n\t\t   {%- endif %}\r\n\t\t{%- endfor -%}\r\n\t\t</tbody>\r\n\t</table>\r\n\t{% else %}\r\n\t{%- endif %}\r\n\t<!-- Product Bundle Details End -->\r\n\t\r\n\t<div class=\"row section-break\" style=\"margin: 0px !important; padding-bottom: 5px !important;\">\r\n\t\t<p style=\"font-size: 12px; padding: 0px !important;\"><b>Amount In Words : </b> {{ doc.get_formatted(\"in_words\") }}</p>\r\n\t</div>\r\n\t\r\n\t<div class=\"row section-break\" style=\"margin: 0px !important; padding-bottom: 100px !important;\">\r\n\t\t{%- if doc.remarks and doc.remarks != \"No Remarks\" -%}\r\n\t\t<p style=\"\"><b>Remarks : </b>{{ doc.get_formatted(\"remarks\") }}</p>\r\n\t\t{% else %}\r\n\t\t{%- endif %}\r\n\t</div>\r\n\r\n\r\n\t<footer>\r\n\r\n\t\t<div id=\"footer-html\" class=\"visible-pdf\" style=\"display: block !important; order: 1;\">\r\n\t\r\n\t\t\t<div class=\"letter-head-footer\">\r\n\r\n\t\t\t\t<p style=\"text-align: left; display: inline-block; width: 49.70%;\"><b style=\"border-top: 1px solid #000;\">Received with good condition by</b></p>\r\n\t\t\t\t<p style=\"text-align: right; display: inline-block; width: 49.70%;\"><b style=\"border-top: 1px solid #000;\">For Excel Technologies Ltd.</b></p>\r\n\t\t\t\t<div>\r\n\t\t\t\t\t<img src=\"https://www.excelbd.com/wp-content/uploads/2021/02/SINV-Footer.jpg\" style=\"width: 861px;\">\r\n\t\t\t\t</div>\r\n\t\t\t</div>\r\n\t\r\n\t\t\t<p class=\"text-center small page-number visible-pdf\">\r\n\t\t\t\tPage <span class=\"page\"></span> of <span class=\"topage\"></span>\r\n\t\t\t</p>\r\n\t\t</div>\r\n\r\n\t</footer>",
 "idx": 0,
 "line_breaks": 0,
 "modified": "2022-07-04 12:01:10.220912",
 "modified_by": "Administrator",
 "module": "Excel ERPNext",
 "name": "Excel Sales Invoice",
 "owner": "Administrator",
 "print_format_builder": 0,
 "print_format_type": "Jinja",
 "raw_printing": 0,
 "show_section_headings": 0,
 "standard": "Yes"
}